{

  "com.cupcakedigital.ssc.coloring.balletpack" : 
  {
	"itemType": "ENTITLED",
	"price": ".99",
	"title": "Ballet Pack",
	"description": "Get the ballet pack with 10 lovely coloring pages and 10 bonus stickers!"
  },

  "com.cupcakedigital.ssc.coloring.petspack" : 
  {
	"itemType": "ENTITLED",
	"price": ".99",
	"title": "Pets Pack",
	"description": "Unlock to color 10 adorable pets and add 10 bonus stickers!"
  },	
	
  "com.cupcakedigital.ssc.coloring.princesspack" : 
  {
	"itemType": "ENTITLED",
	"price": ".99",
	"title": "Princess Pack",
	"description": "Unlock for 10 pages of princess coloring, 10 bonus stickers and glitter!"
  },

  "com.cupcakedigital.ssc.coloring.winterpack" : 
  {
	"itemType": "ENTITLED",
	"price": ".99",
	"title": "Winter Pack",
	"description": "Get 10 new winter-themed Berry Bitty City scenes and 10 bonus stickers!"
  },

  "com.cupcakedigital.ssc.coloring.bundlepack" : 
  {
	"itemType": "ENTITLED",
	"price": "2.99",
	"title": "Bundle Pack",
	"description": "Unlock all of the fruitastic theme packs! 40 coloring pages & 40 bonus stickers!"
  }
}